module github.com/jackycsl/pcbook

go 1.15

require (
	github.com/golang/protobuf v1.4.3
	github.com/google/uuid v1.2.0
	github.com/jinzhu/copier v0.2.4
	github.com/stretchr/testify v1.7.0
	google.golang.org/grpc v1.35.0
	google.golang.org/protobuf v1.25.0
)
